{
  "project_info": {
    "project_number": "332226422655",
    "firebase_url": "https://mzonlinemarket.firebaseio.com",
    "project_id": "mzonlinemarket",
    "storage_bucket": "mzonlinemarket.appspot.com"
  },
  "client": [
    {
      "client_info": {
        "mobilesdk_app_id": "1:332226422655:android:d1e1161732ebc054b79c4a",
        "android_client_info": {
          "package_name": "mz.online.market"
        }
      },
      "oauth_client": [
        {
          "client_id": "332226422655-ge4f516macaoo0m3immog0n48fu5cuti.apps.googleusercontent.com",
          "client_type": 1,
          "android_info": {
            "package_name": "mz.online.market",
            "certificate_hash": "b541d2f03cb312eff48f7dab875137ac3590f337"
          }
        },
        {
          "client_id": "332226422655-c24qrv07deea4tvag2rnrsb4qi43arr2.apps.googleusercontent.com",
          "client_type": 3
        }
      ],
      "api_key": [
        {
          "current_key": "AIzaSyC041jqWHcB3Ed8G-kCN24HRu8bfnLl7LE"
        }
      ],
      "services": {
        "appinvite_service": {
          "other_platform_oauth_client": [
            {
              "client_id": "332226422655-c24qrv07deea4tvag2rnrsb4qi43arr2.apps.googleusercontent.com",
              "client_type": 3
            },
            {
              "client_id": "332226422655-3legi9aq7h916se7janeu3auol8sja66.apps.googleusercontent.com",
              "client_type": 2,
              "ios_info": {
                "bundle_id": "mz.online.market"
              }
            }
          ]
        }
      }
    }
  ],
  "configuration_version": "1"
}